Scample,SARS.cov2.1,SARS.cov2.10,SARS.cov2.11,SARS.cov2.12,SARS.cov2.13,SARS.cov2.14,SARS.cov2.15,SARS.cov2.16,SARS.cov2.17,SARS.cov2.18,SARS.cov2.19,SARS.cov2.2,SARS.cov2.20,SARS.cov2.21,SARS.cov2.22,SARS.cov2.23,SARS.cov2.24,SARS.cov2.25,SARS.cov2.26,SARS.cov2.27,SARS.cov2.28,SARS.cov2.29,SARS.cov2.3,SARS.cov2.30,SARS.cov2.31,SARS.cov2.32,SARS.cov2.33,SARS.cov2.34,SARS.cov2.5,SARS.cov2.6,SARS.cov2.7,SARS.cov2.8,control.1,control.11,control.12,control.13,control.14,control.15,control.16,control.17,control.18,control.19,control.2,control.21,control.22,control.24,control.25,control.26,control.27,control.28,control.29,control.3,control.30,control.31,control.32,control.4,control.5
Label,SARS Cov 2,SARS Cov 2,SARS Cov 2,SARS Cov 2,SARS Cov 2,SARS Cov 2,SARS Cov 2,SARS Cov 2,SARS Cov 2,SARS Cov 2,SARS Cov 2,SARS Cov 2,SARS Cov 2,SARS Cov 2,SARS Cov 2,SARS Cov 2,SARS Cov 2,SARS Cov 2,SARS Cov 2,SARS Cov 2,SARS Cov 2,SARS Cov 2,SARS Cov 2,SARS Cov 2,SARS Cov 2,SARS Cov 2,SARS Cov 2,SARS Cov 2,SARS Cov 2,SARS Cov 2,SARS Cov 2,SARS Cov 2,CTRL,CTRL,CTRL,CTRL,CTRL,CTRL,CTRL,CTRL,CTRL,CTRL,CTRL,CTRL,CTRL,CTRL,CTRL,CTRL,CTRL,CTRL,CTRL,CTRL,CTRL,CTRL,CTRL,CTRL,CTRL
HMDB0000050,4835.997968,4573.503662,4072.728852,4830.936761,4019.152807,1776.840763,22379.57905,1207.789171,4428.792578,16603.96417,3437.196774,53779.10621,26121.83462,1341.698324,4587.332724,4781.727097,3262.610679,744.0324766,4313.910923,4037.16546,4342.296259,1732.340243,9871.910908,4271.541987,5463.920125,4814.059562,4553.047259,4189.614875,5542.97429,4107.513305,2835.23326,13333.01677,38627.75062,1438.108753,1814.171586,1668.353366,1460.605659,1695.618487,663.7025608,1600.366439,551.2937763,1670.733405,14913.75159,1150.187618,488.7114095,1557.5249,3165.113965,1531.267906,404.8026528,1507.040504,1721.026234,32367.34827,1560.813225,1579.747736,1582.795631,1316.403022,17897.59695
HMDB0000064,85604.89113,88587.98722,80130.72387,88936.18726,80777.4384,81521.5444,76508.28379,10862.00776,109020.579,90554.58234,72942.88176,80214.82938,75128.10219,84094.52266,76139.31837,85505.27999,74270.94342,82210.96406,77832.72106,95649.23918,80328.8981,60125.7393,73489.81786,86868.28842,81657.68591,82829.03375,85780.50152,84615.05197,82657.03228,78008.90301,87150.42335,87529.56377,18788.11503,5404.587569,20014.30028,5386.95002,18375.62587,20073.01757,20838.00695,21162.30537,9876.563504,21196.10995,18584.04053,24403.72731,18392.66401,69453.67814,28729.57208,20896.34815,20799.13279,19243.96883,18835.914,18590.20503,21027.24487,17949.22031,20193.44062,20731.36332,17969.40544
HMDB0000077,1335.576171,2294.133465,1236.84237,2347.028876,1727.533575,2119.886293,2192.182929,2972.247614,1993.69034,2293.361326,1863.117466,673.4151774,1999.83616,2075.027488,2383.364728,2355.626032,2263.894598,2097.047973,2076.357719,4428.447064,2256.382567,2194.759528,2107.731508,2234.720231,4462.042476,1962.22478,2223.977518,2284.200975,6160.966864,812.5515434,2150.095242,1998.005153,2703.489107,1827.687144,2042.374976,1271.228403,1303.400117,1253.361246,1865.311645,1966.77013,2524.509092,2009.396125,2037.841688,1718.367343,1816.252837,1743.124812,1995.617025,851.0529491,2171.508677,1760.529534,1775.164961,1929.317235,1840.867662,1961.011458,969.9405015,3982.122618,1977.321343
HMDB0000094,13574.14,13650.74907,14865.76441,14568.78805,15663.41346,15858.20258,15106.56669,23362.94044,15246.58433,16658.90143,11424.85557,14806.28295,15976.39675,12101.03712,15968.44492,13836.3821,15174.34842,32234.81832,9617.240375,15349.72575,40546.6061,13765.0655,15023.74044,13697.10152,14486.83417,10590.62943,15963.73635,15016.66129,13573.1478,15650.2617,14507.65635,33799.04425,30040.0368,19499.57717,21964.39701,21456.85296,19832.953,27834.80085,19772.24506,23677.1968,21879.88169,22183.15177,22786.93792,12101.03712,20752.77273,22744.56488,16940.05216,21877.94837,22441.9735,19655.53723,20394.25344,11293.84653,23640.03526,20645.72139,21325.65696,23589.76712,21583.97989
HMDB0000097,54265.48738,52704.32551,51691.59329,55418.53058,40456.19642,36719.03422,44933.70386,54546.92196,54408.81624,52270.85602,53662.6822,55846.3029,48176.98344,78848.63663,42376.9123,49631.13559,51105.97941,46338.62546,48608.34361,59547.9677,46991.32397,51687.54584,55908.99266,49137.93887,51203.94528,51455.74928,51622.29138,58661.39323,47530.79991,54633.91794,56142.97279,46369.00557,61481.56427,44813.64842,44992.47175,43252.54789,46205.78845,47428.83853,46647.66082,39180.2526,44959.24098,45608.14383,40341.01183,48244.93571,46798.52304,40794.62445,43106.32115,45072.18215,46155.66832,30428.57066,42864.90996,45347.56262,48636.67031,38767.67649,48948.08537,49693.75844,45499.94334
HMDB0000133,5916.960466,19331.75105,18725.3233,5010.614744,17947.87212,18058.10081,33532.79865,17960.04682,13887.42154,25816.87953,17603.7399,72860.95931,16464.12709,17498.58898,9287.195299,7513.728597,18573.412,17885.24347,18974.09991,17730.27318,17325.11131,11790.56523,18413.33396,17704.17585,18593.35778,18930.57747,20840.34841,16330.48367,18662.62391,16303.61034,18327.66685,19629.22156,18346.56791,8743.391951,6859.011123,9112.005025,9217.526251,10061.31558,3853.637149,9028.579996,9217.537463,9878.705297,9602.435432,17498.58898,8230.214711,10056.25884,9245.427235,10538.18962,8986.961536,9332.176262,10720.10668,16681.90092,8759.500816,7902.582272,8701.50848,14381.80479,23616.56339
HMDB0000157,14244.43025,11505.15376,14870.06018,12856.5714,14034.98232,14435.44824,17275.11965,13885.62966,14641.26889,14080.56232,5525.1453,48302.68096,13366.8058,13896.92035,11366.80012,13195.03636,12590.44689,16384.73313,12390.17769,12977.29959,12301.52039,1255.078162,18844.03394,13689.06304,14520.52901,13395.46756,14560.05157,13997.77081,13355.46033,14200.50588,12672.50159,13908.4217,11465.52649,9102.725365,8310.95916,8521.158998,7772.154076,3491.516179,8616.533148,9271.026689,8736.653293,8719.639315,5725.884463,7400.948048,4398.648006,8261.56617,4151.947709,7992.619146,8940.93038,7913.500236,13091.04911,11678.47016,8007.48414,8597.731518,8023.998039,9557.100283,14908.66535
HMDB0000158,19946.59945,34272.53764,20552.04174,8545.381459,18180.92324,19290.50298,20368.89888,17244.06189,21102.38562,19798.83414,20316.41931,13933.81604,19380.89986,18235.01523,128264.381,139906.6029,23287.01805,126577.4957,21945.25774,51631.3078,19412.41962,19392.51977,20755.66059,30507.97266,8100.381225,17676.5107,19815.95309,20935.58737,18996.32683,15220.55214,19343.34672,20104.38471,30520.48546,7861.201276,46225.33697,17535.56581,14313.5862,16854.24551,19263.10724,25674.13624,17744.08168,20387.64125,26821.27041,17428.04641,17311.18755,26828.32638,11194.12876,7752.827313,18887.3442,8368.693975,16851.72729,16812.66547,17767.27331,18666.02252,17311.82077,7483.482417,18441.98805
HMDB0000159,104361.3861,166083.2978,43685.0694,88103.98108,77620.38106,70810.56005,124741.9398,147363.1678,129072.8816,135946.0156,43911.54639,176876.3737,204007.2183,91373.37857,124871.9657,112757.5647,94892.81915,176081.2618,54363.09222,148974.0047,128299.5383,99060.58686,14712.69266,127707.3999,134641.0267,119508.8578,200433.7217,226376.3373,15337.14833,82798.48757,124177.5254,135457.0368,143039.2212,2642.655757,119713.6902,5967.728864,91657.47816,72560.22178,84199.61901,44673.44401,71060.47353,116931.4714,88172.07604,106168.9296,65530.7028,122414.4353,36351.70906,9974.868887,40242.99833,18413.53721,73883.3095,61454.35993,76990.60341,87215.72541,54948.82775,107171.8932,70198.14487
HMDB0000162,29570.60878,34350.11628,29254.49733,17272.81462,20193.1202,31417.3715,29188.75279,57856.92385,20182.29806,30348.58563,37751.70611,30654.80925,61116.33048,35659.3698,28654.91199,32325.71021,1594.509263,32764.85009,29028.45772,32937.48413,29848.1335,34056.86745,32179.78593,29610.91529,30207.40834,29681.97563,28640.49986,26478.71828,32965.93088,34436.53457,31476.224,31385.37203,66598.02093,5333.415058,41280.20535,41892.24982,45600.3803,46321.00325,41999.93695,34049.85853,61905.84719,40075.18233,42142.2195,42345.95025,42638.90071,43606.10092,34006.24428,40825.22434,50023.19886,44729.88388,40363.83486,39202.78263,68827.0909,54259.80257,46446.05241,39121.17934,45378.77111
HMDB0000172,29596.78427,2297.037925,32565.4369,33083.34101,13921.27108,31602.53234,33360.94168,2233.398902,30097.48892,56507.92076,32281.71532,30905.10484,5557.617337,45379.55346,34613.93346,32388.81803,46122.69013,28815.08286,33212.29937,30887.10791,30838.55075,29862.48575,30854.76361,31772.78366,33826.04075,28668.44747,31280.01033,31487.76252,32426.18032,33234.89622,29472.34622,40000.82835,28652.57523,29238.42568,30238.75938,30517.08457,42930.7246,252.6599994,34192.64494,17083.2687,31796.68565,34892.83244,33259.44391,47045.29495,31404.71128,34061.73453,29376.78447,28329.68047,32061.99375,33196.88728,32824.24247,32034.05522,28491.33466,31060.81932,24186.67258,34398.74649,30537.5514
HMDB0000195,6134.743192,12090.67037,7375.055928,5135.541116,12356.87834,8741.116,34497.10523,13512.4758,14229.0858,26455.98177,11655.24818,75239.50791,27682.63251,18191.45861,9631.071837,7787.653991,8289.422919,18493.48905,1701.306528,2757.429799,12812.03427,12471.67586,12369.83864,4720.165501,23174.97875,27542.17356,21186.98173,3799.089358,8595.918874,3362.908946,18855.61712,20473.89252,18927.09563,8566.265298,8510.080826,7987.717069,7759.485618,6005.011215,3953.272643,4191.007811,7701.866289,7816.487228,9889.464975,18191.45861,8478.606973,7186.140594,9611.320402,489.3590341,1986.214334,1841.674851,11094.11591,17119.5195,2897.404549,8104.136318,8820.165466,14741.24271,24400.40965
HMDB0000222,39721.50371,37984.19826,36651.06592,30543.80454,35145.50276,26782.04137,37920.2933,34087.14688,37142.89544,110464.9267,34383.99127,44044.07832,76325.00525,38881.59329,39230.24442,88348.16798,36798.65083,37107.15016,28614.57804,40732.49371,18927.83642,15455.69008,20347.48286,34118.81469,39769.79231,34763.19644,38721.66362,39801.55953,88844.93016,38161.83216,40077.08083,34295.73718,45148.85092,45231.27811,49027.07781,35412.3809,44363.67949,60757.24788,75380.6488,23815.10619,47155.67975,74237.11074,49512.5687,47913.42545,61534.38871,41518.88431,66485.75651,32299.3382,50316.10082,30521.35045,27050.42789,49715.67113,36720.70909,60441.44662,48784.27335,44785.62468,39099.92595
HMDB0000440,7006.009945,7652.007118,7306.66744,7402.992146,7878.238762,7333.154482,6831.340876,19617.16472,1122.059135,7320.908852,6792.109335,6954.140883,7534.832605,7647.594127,6948.048251,7713.620683,8145.608262,9124.764046,7263.014958,6874.983708,12805.85018,6500.819262,3725.959831,7112.581545,6924.125673,7143.87733,7942.290422,7452.186881,6724.866516,6929.019838,6905.56844,6650.553614,2553.907555,1544.534247,2681.650097,1352.043924,3658.843475,2443.712588,2360.963186,2399.797678,2564.39844,2402.475732,2265.93417,2526.176954,2537.88317,6130.48377,2554.623518,2681.25107,2871.043834,2451.821631,2294.254542,2649.29904,2333.255626,2677.289542,2010.420882,2579.145127,2331.93604
HMDB0000491,21758.59672,48450.72717,46541.6502,16452.56958,19272.97472,45704.27704,47923.0466,48502.58059,67028.94287,55017.09483,46209.00512,41224.21957,48225.25554,28116.161,57960.48297,41285.7527,32745.63874,72948.40566,14475.37154,41150.93135,48773.06581,48173.66588,48240.87662,47432.09419,44357.05539,51361.70398,46696.34884,45391.96403,44479.08868,37639.75206,44118.58967,54088.58465,38495.84264,36334.55603,72105.45582,33350.29786,52601.30882,40605.11222,39447.58917,21807.09264,39061.40905,30881.79122,32334.45265,28116.161,35875.95085,37240.4086,36536.61726,38818.53142,29170.69034,38157.104,30767.48293,39012.71642,63844.70068,36822.21011,38866.50519,35683.21055,33346.8448
HMDB0000511,5596.911045,16473.41517,3238.611042,11720.43452,5658.87655,5921.721737,4112.164858,5736.463686,6627.400554,6117.82298,5807.37044,23294.40408,6093.193982,6511.540934,4733.145901,3374.27621,8458.964754,14914.02561,6125.314925,9584.450101,5989.687315,4515.936131,6270.011661,6026.474208,5806.240068,6543.530365,8108.850639,5570.229441,6542.849777,6549.518681,3165.870608,5634.206581,4125.251292,4525.659139,4727.949244,4593.056442,9739.472149,5481.194035,4832.620673,4393.69146,4444.220545,4368.156335,4619.840396,4181.486166,4543.975238,4181.842859,4613.173291,4602.018925,4045.08804,4802.449053,4916.525105,4193.010803,2980.837029,4461.205996,4578.192027,4311.183941,4340.099335
HMDB0000673,6319.985581,6109.662376,6157.136807,6123.420798,6249.236674,3876.384345,6202.570149,6135.152965,5492.724424,5962.236471,5562.955327,89174.993,5665.772978,6206.3635,6249.934616,6020.719108,5711.89918,24875.16043,3207.857281,3772.153125,5277.757592,5547.288582,6259.854048,5496.107019,5386.522293,5942.523029,5592.120445,6312.152615,6122.400078,6348.247388,73479.32951,6003.283089,21809.30063,12802.90279,15616.63188,14214.36111,13442.43005,14206.5714,14210.32137,13848.40605,14698.6762,14615.88113,12135.6292,12664.74101,13084.47436,13475.28735,14067.95083,12439.11289,12196.78685,14229.7604,2244.72427,13388.39997,13341.44003,4141.513946,12364.65183,14373.50273,15270.25215
HMDB0000682,30882.89658,17982.71411,7313.082788,6807.468068,5147.732097,2081.30062,7036.541116,7314.771934,1222.184501,7756.199319,7539.318744,7106.529183,1379.847853,2116.005155,6065.285347,5026.546458,2069.457041,22893.4833,9852.21296,7312.651453,24587.41445,20315.77214,14984.66434,7302.584095,17718.62686,33004.73488,2537.090287,2263.367906,52571.94049,5912.254884,7799.880717,8268.162878,13334.22185,3106.913781,5741.905736,2493.316169,21091.58559,17573.42755,6990.86761,21958.62905,5974.34851,35058.14423,24600.74037,2116.005155,11009.32323,54685.84308,21549.1183,10266.90831,8641.466135,3356.129709,11324.79032,1962.461372,20073.90768,13640.46904,12038.19447,10400.09242,7396.504723
HMDB0000684,2938.8994,2480.171993,3474.849421,3044.405281,3647.210831,2655.209579,3586.223044,3625.619156,2783.188132,3222.632115,3383.849147,3807.856422,3517.240889,3312.927787,3496.910232,3355.578666,6651.540877,3604.687921,4721.248953,5245.969859,3819.619719,4036.510736,7707.031162,5013.737306,7926.240241,3108.905431,3377.822692,3346.02958,9953.920586,2490.691718,3425.857789,3895.56647,3228.801555,2029.472207,2716.00954,2042.718942,1887.429464,2347.722884,2221.718288,2166.608594,2313.75224,1652.407475,1814.832669,2591.089515,2272.12619,2147.51474,2066.818482,2354.032043,2243.063316,2189.698949,2007.86872,2370.801516,2193.576072,2458.584747,2194.373616,2794.57192,2253.238559
HMDB0000687,41204.70056,56286.20759,18327.78625,39048.33515,24936.94482,39733.90933,37671.62306,44576.607,39216.2293,43991.87824,39484.24227,41908.78605,37196.34503,41233.1363,37579.38431,43445.81524,42746.46182,52586.51806,39590.63058,40712.71829,30381.52543,44351.79489,37932.34109,40669.35667,40819.83272,49582.22322,41638.50594,37343.05115,40403.8223,44404.84908,66555.82903,40674.47461,33610.41635,36080.93817,39752.5647,33700.91524,37783.58043,36930.95752,40003.50298,38658.27184,36010.19054,34245.45311,34205.89212,40030.71358,36801.89118,38679.12293,24469.98912,5452.246457,38099.57916,11482.41543,38988.00503,34086.39195,57381.22164,44512.8838,46143.28984,41106.3488,35543.91069
HMDB0000696,8434.557159,10530.45122,9727.375768,10260.43951,9618.537091,9497.155005,10237.75175,12780.81996,11085.441,10230.12083,11153.63698,9975.329809,8040.628699,6853.622438,9519.99239,9705.331227,6896.349388,11311.88946,3935.080443,10998.08599,10199.93454,8608.418173,10234.69957,10488.07701,10843.65045,11172.32647,16847.76359,9569.670964,19122.67182,6575.722828,11186.882,10493.65757,10528.91766,5858.512876,8027.882252,5734.280813,6682.395996,5573.74847,5896.315619,2884.832252,5520.598558,9201.661087,6332.839014,5398.557799,4713.067954,5378.635096,5486.634986,5249.898507,2783.820201,1487.070574,5856.561836,5007.769416,5449.290326,5735.431713,4138.85601,8868.474428,5536.842562
HMDB0000714,2015.241457,3145.286132,3598.676595,14020.13947,3948.73665,4096.717599,4304.574932,3132.742217,4045.143943,3984.067518,4016.909272,3831.663264,3614.775772,3969.152888,5463.049041,4289.31381,4738.077386,8250.230598,2787.62794,3905.136827,3879.315415,4654.405805,2451.39029,1601.796209,4051.306801,3911.799797,4265.391951,3808.301552,16173.92435,3628.58804,3578.047147,31052.38047,7738.253843,6805.647286,11164.68573,6684.273918,6768.804493,19004.93209,6732.49342,8258.943724,6021.323809,20335.69871,1728.140063,3969.152888,6266.833427,6470.921342,7624.63805,5994.330532,3521.070854,5894.877908,14740.49388,1159.251158,5369.851201,14995.56755,4250.240628,6043.36072,4476.511627
HMDB0000715,2165.085177,2873.36377,8198.915331,2251.461135,2029.229278,1039.535116,2405.53503,2107.661615,2198.862042,2286.070669,2341.834476,1317.612703,2483.188122,2776.993132,2951.283987,2302.354707,2036.165169,1660.299949,2103.776769,2133.525042,2699.375499,1388.915975,849.6298364,1770.250477,1335.733907,1589.3074,4022.978824,2194.857061,2156.953796,2093.725445,2397.604131,1218.505785,1751.381326,1694.809558,1356.769474,1729.412805,1613.824163,1902.033398,1188.537409,1614.389465,1215.023303,1817.5657,1663.410377,2776.993132,2280.423905,1902.996612,1294.546764,1598.321577,2789.650982,1469.52808,2104.127627,1700.11076,2040.574497,2582.858233,1749.008689,1760.42542,1746.662852
HMDB0000895,19208.70491,14060.27275,13401.84899,10410.54645,16170.31235,7030.343454,14142.13629,13054.32207,15114.51283,13858.6677,13012.37024,13355.43456,15370.81115,13464.31251,14279.25397,15091.94289,15432.7271,6115.141395,14833.89757,15342.22396,16927.50509,18970.27455,12802.0954,13834.95268,18213.26618,13067.93522,14447.99036,13470.3572,15445.91786,12856.29924,12612.27102,24137.75796,6816.745243,847.4954936,6593.389854,7727.127702,7599.900164,6922.241636,11491.73133,6652.936636,9078.133972,7486.784054,7206.36108,6776.978664,6550.580461,8170.866349,7404.315238,7343.000786,7375.422598,7281.443694,6215.808184,6799.27646,7510.324659,7041.43466,6303.304841,13213.50252,7304.583024
HMDB0000929,25899.45533,29211.67745,7002.90914,11362.2462,41164.28874,16211.23424,23890.21926,67059.13764,34268.40175,41272.75217,17640.57615,48786.14276,76158.28453,44313.2254,44619.43703,35422.81329,50226.40781,63630.89739,10248.57888,24592.18903,37561.13497,25850.8925,22733.81871,26292.84356,34739.11148,41868.18991,80174.87488,78956.24122,65440.57531,44130.42578,23644.28002,40918.19653,82935.20862,1653.021205,70061.44611,3927.147005,64051.13504,38363.77504,47396.62091,43983.53984,40694.53224,47833.36787,44191.83691,44313.2254,39042.74045,66383.0813,27966.79053,6962.924943,27217.30451,11751.27248,47373.78072,29011.35581,48133.4335,52252.65961,52457.94637,45594.65274,45635.17637
HMDB0000930,104361.3861,166083.2978,131688.55,88103.98108,77620.38106,70810.56005,124741.9398,147363.1678,129072.8816,135946.0156,119923.7375,176876.3737,204007.2183,91373.37857,138164.5458,112757.5647,94892.81915,176081.2618,139385.5348,148974.0047,128299.5383,99060.58686,243921.156,127707.3999,134641.0267,128950.2828,200433.7217,226376.3373,129163.7186,82798.48757,124177.5254,135457.0368,143039.2212,91336.44184,119713.6902,100197.4465,91657.47816,72560.22178,89244.49231,97669.1278,101566.109,116931.4714,89945.14931,106168.9296,65530.7028,122414.4353,98523.67677,92620.9187,108647.2892,108089.4262,73883.3095,106974.1832,100274.9634,87215.72541,92595.36222,107171.8932,70198.14487
HMDB0001645,44647.02203,56286.20759,18327.78625,42160.11852,24936.94482,37567.16663,41055.90397,41465.9319,41497.00018,39112.35543,41907.43005,39121.22382,39872.08843,43843.50292,44751.9494,39008.03087,42438.41412,52586.51806,43846.188,40712.71829,30381.52543,39311.7555,38362.25518,40127.59618,40819.83272,49582.22322,38383.49161,40879.93634,38769.75472,41380.64127,66555.82903,40708.78503,39542.21886,37801.54647,39272.68372,36975.19726,35635.17678,33722.22001,35929.51272,36167.49866,35590.31954,35014.60296,34205.89212,38172.40713,36434.68818,40223.21522,24469.98912,5452.246457,35751.93328,11482.41543,38988.00503,36374.12707,57381.22164,44512.8838,46143.28984,41106.3488,35543.91069
HMDB0001847,13571.17825,3140.005333,15382.75356,13059.23795,14416.822,13186.47064,23147.82753,34928.75718,25915.87731,15621.16705,13664.92275,1250.217322,24015.29725,13282.09337,17952.93963,13991.15249,14185.7547,12511.65452,707.87091,6717.381064,114771.3871,15637.63913,13422.41555,272433.3448,26226.43588,14123.00714,13834.93453,15253.99163,9245.359331,12539.40918,2960.500487,17797.82054,77183.93335,13578.25554,70456.30046,12823.80431,15527.00386,161956.0961,19411.44165,12623.59439,3540.526594,51271.68251,188447.5098,17902.99401,64328.32458,98462.01437,58657.55088,11409.34584,64817.8703,43851.942,33947.86842,4879.649797,16546.2788,74141.79563,52594.77761,39856.44695,21398.09989
HMDB0001934,300973.0481,357295.6161,107203.982,251188.8821,327380.998,320273.252,414410.4148,234655.2721,301198.1437,442372.7826,298873.1799,339184.885,298602.1804,347945.466,310693.4037,321728.0517,209949.549,350271.9004,306233.1586,411211.9845,240399.2413,311693.1195,322148.3247,341009.7045,319434.6343,407051.4686,401243.7792,312845.2608,331806.1506,320969.7799,302221.5081,338519.4378,275605.934,230799.8058,272114.5953,238653.3904,345186.9214,264654.5589,263584.756,228264.6299,258971.1355,255036.1219,241212.0939,258868.2735,230253.7815,229503.4041,251213.1702,258498.0271,229421.8619,248895.5845,224599.8422,243388.8474,251413.6848,215108.7615,264005.8145,272152.671,265118.0569
HMDB0001942,1425.731956,1753.432314,1320.784267,1380.521013,951.661612,3540.885257,1436.501523,1123.19648,1293.544149,1851.246597,1403.912814,1437.770311,1299.45062,1389.314883,1354.543907,1314.891644,1445.98063,1366.315567,1339.676674,1312.103991,1254.23672,1957.19347,1289.352847,1318.376085,1348.190462,1297.536417,1368.860813,1183.169907,1511.054543,1383.79018,1518.214563,1489.694234,1620.124252,1394.428323,1426.645822,1611.541792,1864.404635,1410.893701,1357.743802,1530.750933,1504.743292,1576.661579,1209.033392,1479.193755,1393.969541,2035.243548,1581.226913,1373.72436,1370.84744,1353.798569,1417.638873,1035.862479,1709.519627,1569.955336,1548.373764,1391.467394,1394.172866
HMDB0002035,17709.3714,16578.40508,1314.778129,2791.128528,3831.032516,16416.36476,17129.55947,17244.06189,17941.10014,19798.83414,9643.189012,26455.31328,16427.13605,6714.65469,21629.46753,16430.42246,23287.01805,26904.12235,18000.20231,17169.54503,18497.04463,6045.311204,4745.324821,4919.228095,18454.94631,17676.5107,38838.43922,15311.63793,17647.04303,15220.55214,19343.34672,20104.38471,1573.541428,2888.722653,2871.203682,3285.848851,3332.45014,599.2540175,5348.739253,2514.816027,3110.606786,12921.97967,3294.851316,3997.922078,2011.170079,3040.190724,2444.418489,3081.791212,2974.129519,2878.517298,3816.436189,3197.6965,3458.821006,3077.542266,14059.99425,3187.886271,3045.086872
HMDB0002250,22149.93568,7976.166164,21952.80055,21612.91757,12051.69754,19009.37553,20754.49093,13633.37566,30190.76052,13697.91563,21467.2383,5939.704555,19712.67101,21757.56089,19920.19317,15147.03746,23164.52009,23037.60139,22217.67421,29605.01605,45036.30411,20267.51335,36895.19554,36449.61126,30417.49837,21784.64031,12971.55751,15370.01266,55548.74481,20621.81688,21410.08161,26725.43144,7745.891108,4232.392493,8888.868939,24121.67285,13204.73294,8355.186661,7564.356993,9028.590754,8029.241873,8599.217925,7838.727144,7693.22031,8864.778442,7943.310796,6982.929198,8866.49314,13973.29373,7565.122652,8093.428804,25514.00626,7684.177752,7597.800669,4191.396026,30017.0811,8647.895959
HMDB0002511,5179.472415,3175.584531,4923.388236,5350.528047,5285.846255,7678.042383,5323.908559,5386.579612,4412.681993,5358.036945,19932.56239,5346.719518,5124.662101,4950.532084,4685.085847,4897.898619,5315.613922,5000.397101,5018.896614,5225.807668,4463.636008,5260.379045,2431.051811,4386.587583,5096.813178,5273.776771,6020.094171,5193.62866,4911.335053,4071.634218,4917.442283,5064.159861,37197.56888,6386.124075,7094.286893,7153.943796,6761.00299,6762.241742,40438.73359,7312.460377,6645.753299,5553.457681,6089.142889,6260.311994,6648.572602,6098.032615,6617.58605,6054.54029,6266.297835,6699.156889,6110.028125,3501.031197,6184.452298,4118.511069,6787.808916,6435.712726,7828.783203
HMDB0003333,757.070583,801.207028,872.8686148,811.0293609,809.9222572,405.8625234,1313.310532,428.8978394,825.9717374,1020.55212,761.5380591,6719.213017,779.4360554,539.3128944,883.8164929,850.1054961,910.4759725,871.5868427,816.9844943,864.8277156,790.0443711,652.6392985,773.9760007,873.1487014,754.9837402,910.5077083,755.9632873,861.6492963,907.2059962,763.2758606,873.4258938,1404.331412,2428.953297,841.8183309,800.0105052,893.0649831,486.8073779,755.1531039,812.011453,821.8288909,770.9634741,372.6835621,757.8298779,899.3230404,877.8350504,836.8002755,493.9095873,820.9318616,774.3551808,823.2882814,540.6184869,2154.749441,885.5265345,752.040473,770.0672828,1105.312424,1850.780691
HMDB0005783,9416.357933,8513.393384,10183.14414,9561.894978,10122.71423,13516.37633,10320.73967,9258.481488,9833.02688,14934.49968,13619.84266,9586.694988,9328.470758,8877.234139,6515.080938,10348.35227,8690.154152,10259.83449,8530.450078,9160.157626,10021.92379,9669.43863,767.8453726,9380.159888,9639.400192,9162.078557,10302.61315,8517.027512,9819.89529,8781.946036,10327.12928,9295.952173,17322.52408,19142.47559,20148.84869,18099.03942,18285.07784,17997.63232,11502.41666,19394.49655,19141.2875,17671.83457,18914.69045,24704.20198,19958.88694,27341.96608,9718.8399,18900.78385,18645.50702,19803.99849,21324.21527,17004.93688,17935.27968,18711.01317,9088.089928,18668.65219,19066.17715
HMDB0029645,1311.790997,1244.055077,6217.02644,1185.247277,1048.536519,1152.456366,1255.899311,1290.452532,1494.130405,1184.202637,2536.206729,1336.37468,1367.211431,1715.420547,1194.013483,1349.951436,1194.701938,1197.323129,1166.377824,682.7556213,1241.756854,950.191914,1261.662982,1317.690037,1337.419753,1143.97304,1216.488571,1174.75054,1349.138799,1300.391663,1115.673958,1223.705253,1301.183495,3604.350945,2187.407041,2080.568356,1646.826126,1990.053787,2536.315087,2616.285554,2140.911511,1979.195945,2099.706996,2128.445237,1776.181048,2369.475455,3095.915343,2187.608583,2144.549016,3455.931852,2009.788207,390.5458091,1714.623778,2330.115468,2053.743728,2067.07323,2316.834202
HMDB0029737,2152.651395,2930.527151,8668.114281,2338.540804,2010.267276,1097.977893,2209.625001,2145.462206,2222.025117,2039.161165,2485.009316,1388.95898,2595.769046,2878.28484,2938.706296,2226.648631,2007.433025,1788.427854,2100.93836,2325.146513,2739.050784,1444.514032,1618.412873,2150.952279,1373.717243,1623.378178,4123.61475,2259.770573,2039.764971,2430.011819,2131.515521,1338.815339,1932.663193,1704.348984,1360.559479,1804.210882,1861.339817,1798.252009,1213.242801,1757.666182,1892.359304,1913.439937,1681.70763,2878.28484,2328.694994,1796.829318,1339.495638,1583.24142,2788.101456,1498.710513,2191.817464,1840.224712,2040.161798,1693.231749,1840.157701,1986.270486,1675.10403
HMDB0030254,2522.594919,2471.990648,2380.703925,2153.363175,616.374309,2560.854331,2473.930548,2334.512096,2244.256371,1020.836383,2155.428243,2464.877722,2335.360362,2490.84564,3054.37209,2552.761886,2536.743073,2329.926255,2447.045146,2412.776738,1616.633659,2331.079306,2223.914265,3433.536947,2942.22952,2053.838891,2531.87969,2442.263237,2304.870592,2253.725886,2442.034328,2126.917706,2524.917578,2233.588697,2198.950071,2421.962241,645.753176,2184.273505,2501.561997,2200.970961,1589.298178,2074.18542,2108.352733,3398.641702,5273.288205,2303.924113,2482.755757,2486.174342,2130.130236,2242.257767,2409.715168,861.4205891,2448.843065,2276.213424,2479.941666,2325.23516,3371.585337
HMDB0030575,15772.06051,15416.53039,15743.35135,16048.10145,14767.60193,17536.34612,14208.83293,14854.42735,15200.17573,25045.22633,33451.39032,15369.03903,15588.04106,15393.70475,13439.77378,22637.1029,15191.47394,14436.18544,16421.78207,14607.66857,46506.32851,16477.43971,15266.6285,3867.741492,8818.117585,16424.91728,6791.699883,15464.73076,16925.81788,4131.990777,15870.81643,14989.88919,2981.781523,3349.37647,3120.741381,2984.375082,3376.015358,2887.090615,2936.125416,3159.437297,2813.211317,2359.283807,4939.642332,24469.79204,2997.641011,20522.2252,1975.036822,3253.658574,3001.950762,2926.53029,2815.147572,3841.058766,3312.087115,7958.807957,3036.855498,1440.692496,1133.254115
HMDB0031340,1731.460302,2505.895254,5641.093346,11743.27823,5690.551262,5712.182367,5518.671368,4838.671832,5112.179112,5530.427768,5763.65177,5034.62011,4839.833111,5295.612661,6817.076152,5438.05535,5901.688083,11416.05536,3189.260806,5036.652852,4926.803701,5782.174163,5212.132607,4894.331901,5382.465998,5023.873897,5526.420336,5353.773852,4903.999581,4933.787505,4949.798562,5120.700106,6298.187456,5760.914614,8773.281397,6322.857995,9478.633557,15500.17456,6341.763745,6173.171152,4844.546106,15248.9348,6326.763162,5295.612661,1276.026436,5717.65747,6334.604895,6443.609844,2831.006786,6479.473328,12134.76971,6801.620174,5782.582557,6001.22289,5872.280999,6927.849035,3692.708029
HMDB0033951,8434.557159,11078.50345,10425.77601,10539.31819,10183.61408,11069.16362,10237.75175,12780.81996,11258.31288,10230.12083,9917.623814,10819.69716,8040.628699,6853.622438,10752.38656,9436.790229,6896.349388,11311.88946,3935.080443,10998.08599,10881.30937,8608.418173,9987.784527,10488.07701,9816.265299,11172.32647,16847.76359,10972.66063,19122.67182,6575.722828,11186.882,10493.65757,10528.91766,5035.90166,8027.882252,4970.278817,6682.395996,5029.355832,5126.968137,2884.832252,5520.598558,9201.661087,6332.839014,5122.251506,4713.067954,3985.53501,4983.772316,5407.893538,2783.820201,1487.070574,5125.855382,5007.769416,5449.290326,5769.303693,4138.85601,8868.474428,5547.460093
HMDB0059586,1360.180296,1581.112985,1422.312215,1259.26009,1464.372421,1244.572184,1247.501056,1108.591658,1400.45259,1479.284332,1241.133597,1323.963748,2076.209302,1183.556968,1251.132441,1311.261596,1445.362786,2753.976111,1273.234323,1399.969753,1393.738643,1313.731844,1297.752136,1999.97249,1476.300651,1299.711931,2086.632972,1435.821083,927.2395954,1698.68113,1211.477401,959.7132928,1576.235755,1445.64862,1509.732948,1477.796191,1405.248073,1365.725115,8306.899974,1554.104378,1325.517769,1497.963425,1299.893075,1353.465761,1224.769819,1012.900807,1429.433303,927.8584661,1364.227391,1322.890722,1441.722209,1970.010327,1577.26145,1799.54158,1574.022919,1400.234078,1290.451936
